                __
     __/~~\-''- _ |
__- - {            \
     /             \
    /       ;o    o }
    |              ;
                   '
       \_       (..)
         ''-_ _ _ /
           /
          /
